<svg width="28" height="28" viewBox="0 0 28 28" fill="none" xmlns="http://www.w3.org/2000/svg">
<path fill-rule="evenodd" clip-rule="evenodd" d="M2.33301 14.0007C2.33301 7.55733 7.55635 2.33398 13.9997 2.33398C20.443 2.33398 25.6663 7.55733 25.6663 14.0007C25.6663 20.444 20.443 25.6673 13.9997 25.6673C7.55635 25.6673 2.33301 20.444 2.33301 14.0007ZM13.9997 4.66732C8.84502 4.66732 4.66634 8.84599 4.66634 14.0007C4.66634 19.1553 8.84502 23.334 13.9997 23.334C19.1543 23.334 23.333 19.1553 23.333 14.0007C23.333 8.84599 19.1543 4.66732 13.9997 4.66732Z" fill="white"/>
<path fill-rule="evenodd" clip-rule="evenodd" d="M15.1663 8.16732C15.1663 7.52299 14.644 7.00065 13.9997 7.00065C13.3553 7.00065 12.833 7.52299 12.833 8.16732V12.834H8.16634C7.52201 12.834 6.99967 13.3563 6.99967 14.0007C6.99967 14.645 7.52201 15.1673 8.16634 15.1673H12.833V19.834C12.833 20.4783 13.3553 21.0007 13.9997 21.0007C14.644 21.0007 15.1663 20.4783 15.1663 19.834V15.1673H19.833C20.4773 15.1673 20.9997 14.645 20.9997 14.0007C20.9997 13.3563 20.4773 12.834 19.833 12.834H15.1663V8.16732Z" fill="white"/>
</svg>
